id,firstName,lastName,email,jobTitle,phone
1,Micki,Guidetti,mguidetti0@craigslist.org,Paralegal,383-626-4873
2,Dyann,Ortmann,dortmann1@auda.org.au,Junior Executive,733-197-7451
3,Brooke,Fidgin,bfidgin2@canalblog.com,Environmental Specialist,889-132-3383
4,Ly,Naisey,lnaisey3@slideshare.net,Account Coordinator,349-661-5978
5,Kriste,Myerscough,kmyerscough4@nbcnews.com,Social Worker,830-876-0531
6,Ursula,McEneny,umceneny5@linkedin.com,Recruiter,247-322-2939
7,Walker,Sebright,wsebright6@huffingtonpost.com,Automation Specialist II,781-234-0213
8,Arabele,Brumwell,abrumwell7@technorati.com,Junior Executive,854-997-3605
9,Kamillah,Leaman,kleaman8@state.gov,Assistant Media Planner,743-389-1033
10,Callie,Cobb,ccobb9@squidoo.com,Staff Accountant IV,427-586-5489
